<?xml version="1.0" encoding="UTF-8"?>
<testsuites>
  <testsuite name="First" file="C:\xampp\htdocs\lp2\josefa_santana\application\tests\libraries\First.php" tests="2" assertions="2" errors="1" warnings="0" failures="1" skipped="0" time="0.465244">
    <testcase name="testContaDeveInserirRegistroCorretamente" class="First" classname="First" file="C:\xampp\htdocs\lp2\josefa_santana\application\tests\libraries\First.php" line="17" assertions="2" time="0.443920">
      <failure type="PHPUnit\Framework\ExpectationFailedException">First::testContaDeveInserirRegistroCorretamente
Failed asserting that null matches expected 'Casas Bahia'.

C:\xampp\htdocs\lp2\josefa_santana\application\tests\libraries\First.php:32</failure>
      <system-out>
A PHP Error was encountered

Severity:    Warning
Message:     Undefined variable $contas
Filename:    C:\xampp\htdocs\lp2\josefa_santana\application\libraries\builder\ContaDataBuilder.php
Line Number: 37

Backtrace:
	File: C:\xampp\htdocs\lp2\josefa_santana\application\libraries\builder\ContaDataBuilder.php
	Line: 37
	Function: _error_handler

	File: C:\xampp\htdocs\lp2\josefa_santana\application\tests\libraries\First.php
	Line: 21
	Function: start

	File: phar://C:/xampp/php/phpunit.phar/phpunit/Framework/TestCase.php
	Line: 1248
	Function: testContaDeveInserirRegistroCorretamente

	File: phar://C:/xampp/php/phpunit.phar/phpunit/Framework/TestCase.php
	Line: 914
	Function: runTest

	File: phar://C:/xampp/php/phpunit.phar/phpunit/Framework/TestResult.php
	Line: 581
	Function: runBare

	File: phar://C:/xampp/php/phpunit.phar/phpunit/Framework/TestCase.php
	Line: 707
	Function: run

	File: phar://C:/xampp/php/phpunit.phar/phpunit/Framework/TestSuite.php
	Line: 508
	Function: run

	File: phar://C:/xampp/php/phpunit.phar/phpunit/TextUI/TestRunner.php
	Line: 487
	Function: run

	File: phar://C:/xampp/php/phpunit.phar/phpunit/TextUI/Command.php
	Line: 124
	Function: run

	File: phar://C:/xampp/php/phpunit.phar/phpunit/TextUI/Command.php
	Line: 93
	Function: run

	File: C:\xampp\php\phpunit.phar
	Line: 1123
	Function: main



A PHP Error was encountered

Severity:    Warning
Message:     foreach() argument must be of type array|object, null given
Filename:    C:\xampp\htdocs\lp2\josefa_santana\application\libraries\builder\ContaDataBuilder.php
Line Number: 37

Backtrace:
	File: C:\xampp\htdocs\lp2\josefa_santana\application\libraries\builder\ContaDataBuilder.php
	Line: 37
	Function: _error_handler

	File: C:\xampp\htdocs\lp2\josefa_santana\application\tests\libraries\First.php
	Line: 21
	Function: start

	File: phar://C:/xampp/php/phpunit.phar/phpunit/Framework/TestCase.php
	Line: 1248
	Function: testContaDeveInserirRegistroCorretamente

	File: phar://C:/xampp/php/phpunit.phar/phpunit/Framework/TestCase.php
	Line: 914
	Function: runTest

	File: phar://C:/xampp/php/phpunit.phar/phpunit/Framework/TestResult.php
	Line: 581
	Function: runBare

	File: phar://C:/xampp/php/phpunit.phar/phpunit/Framework/TestCase.php
	Line: 707
	Function: run

	File: phar://C:/xampp/php/phpunit.phar/phpunit/Framework/TestSuite.php
	Line: 508
	Function: run

	File: phar://C:/xampp/php/phpunit.phar/phpunit/TextUI/TestRunner.php
	Line: 487
	Function: run

	File: phar://C:/xampp/php/phpunit.phar/phpunit/TextUI/Command.php
	Line: 124
	Function: run

	File: phar://C:/xampp/php/phpunit.phar/phpunit/TextUI/Command.php
	Line: 93
	Function: run

	File: C:\xampp\php\phpunit.phar
	Line: 1123
	Function: main



A PHP Error was encountered

Severity:    Warning
Message:     Undefined array key 1
Filename:    C:\xampp\htdocs\lp2\josefa_santana\application\tests\libraries\First.php
Line Number: 32

Backtrace:
	File: C:\xampp\htdocs\lp2\josefa_santana\application\tests\libraries\First.php
	Line: 32
	Function: _error_handler

	File: phar://C:/xampp/php/phpunit.phar/phpunit/Framework/TestCase.php
	Line: 1248
	Function: testContaDeveInserirRegistroCorretamente

	File: phar://C:/xampp/php/phpunit.phar/phpunit/Framework/TestCase.php
	Line: 914
	Function: runTest

	File: phar://C:/xampp/php/phpunit.phar/phpunit/Framework/TestResult.php
	Line: 581
	Function: runBare

	File: phar://C:/xampp/php/phpunit.phar/phpunit/Framework/TestCase.php
	Line: 707
	Function: run

	File: phar://C:/xampp/php/phpunit.phar/phpunit/Framework/TestSuite.php
	Line: 508
	Function: run

	File: phar://C:/xampp/php/phpunit.phar/phpunit/TextUI/TestRunner.php
	Line: 487
	Function: run

	File: phar://C:/xampp/php/phpunit.phar/phpunit/TextUI/Command.php
	Line: 124
	Function: run

	File: phar://C:/xampp/php/phpunit.phar/phpunit/TextUI/Command.php
	Line: 93
	Function: run

	File: C:\xampp\php\phpunit.phar
	Line: 1123
	Function: main



A PHP Error was encountered

Severity:    Warning
Message:     Trying to access array offset on value of type null
Filename:    C:\xampp\htdocs\lp2\josefa_santana\application\tests\libraries\First.php
Line Number: 32

Backtrace:
	File: C:\xampp\htdocs\lp2\josefa_santana\application\tests\libraries\First.php
	Line: 32
	Function: _error_handler

	File: phar://C:/xampp/php/phpunit.phar/phpunit/Framework/TestCase.php
	Line: 1248
	Function: testContaDeveInserirRegistroCorretamente

	File: phar://C:/xampp/php/phpunit.phar/phpunit/Framework/TestCase.php
	Line: 914
	Function: runTest

	File: phar://C:/xampp/php/phpunit.phar/phpunit/Framework/TestResult.php
	Line: 581
	Function: runBare

	File: phar://C:/xampp/php/phpunit.phar/phpunit/Framework/TestCase.php
	Line: 707
	Function: run

	File: phar://C:/xampp/php/phpunit.phar/phpunit/Framework/TestSuite.php
	Line: 508
	Function: run

	File: phar://C:/xampp/php/phpunit.phar/phpunit/TextUI/TestRunner.php
	Line: 487
	Function: run

	File: phar://C:/xampp/php/phpunit.phar/phpunit/TextUI/Command.php
	Line: 124
	Function: run

	File: phar://C:/xampp/php/phpunit.phar/phpunit/TextUI/Command.php
	Line: 93
	Function: run

	File: C:\xampp\php\phpunit.phar
	Line: 1123
	Function: main


</system-out>
    </testcase>
    <testcase name="testContaDeveInformarTotalDeContasAPagarEAReceber" class="First" classname="First" file="C:\xampp\htdocs\lp2\josefa_santana\application\tests\libraries\First.php" line="42" assertions="0" time="0.021324">
      <error type="Error">First::testContaDeveInformarTotalDeContasAPagarEAReceber
Error: Call to undefined method CI_Loader::libray()

C:\xampp\htdocs\lp2\josefa_santana\application\tests\libraries\First.php:44</error>
    </testcase>
  </testsuite>
</testsuites>
